ALU_UVM/ALU_UVM.sim/sim_1/behav/xsim/simulate.log
Time resolution is 1 ps
UVM_INFO C:/Xilinx/Vivado/2024.2/data/system_verilog/uvm_1.2/xlnx_uvm_package.sv(18601) @ 0: reporter [UVM/RELNOTES] 
----------------------------------------------------------------
UVM-1.2
(C) 2007-2014 Mentor Graphics Corporation
(C) 2007-2014 Cadence Design Systems, Inc.
(C) 2006-2014 Synopsys, Inc.
(C) 2011-2013 Cypress Semiconductor Corp.
(C) 2013-2014 NVIDIA Corporation
----------------------------------------------------------------

  ***********       IMPORTANT RELEASE NOTES         ************

  You are using a version of the UVM library that has been compiled
  with `UVM_NO_DEPRECATED undefined.

  You are using a version of the UVM library that has been compiled
  with `UVM_OBJECT_DO_NOT_NEED_CONSTRUCTOR undefined.

      (Specify +UVM_NO_RELNOTES to turn off this notice)

Time=0 Interface signals:
clk=0 rst_n=0
a=00000000 b=00000000 op_code=0
result=xxxxxxxx error=x
UVM_INFO @ 0: reporter [RNTST] Running test alu_test...
UVM_INFO C:/Xilinx/Vivado/2024.2/data/system_verilog/uvm_1.2/xlnx_uvm_package.sv(20867) @ 0: reporter [UVM/COMP/NAMECHECK] This implementation of the component name checks requires DPI to be enabled
Time=0 op=x a=xxxxxxxx b=xxxxxxxx result=xxxxxxxx error=x
UVM_INFO H:/Vivado_fpga/PROJECTS/ALU_UVM/ALU_UVM.srcs/sim_1/new/alu_pkg.sv(255) @ 5000: uvm_test_top.env.scoreboard [ALU_SCOREBOARD] Operation: 0, A: 0, B: 0
UVM_INFO H:/Vivado_fpga/PROJECTS/ALU_UVM/ALU_UVM.srcs/sim_1/new/alu_pkg.sv(257) @ 5000: uvm_test_top.env.scoreboard [ALU_SCOREBOARD] Expected Result: 0, Got: 0
UVM_INFO H:/Vivado_fpga/PROJECTS/ALU_UVM/ALU_UVM.srcs/sim_1/new/alu_pkg.sv(259) @ 5000: uvm_test_top.env.scoreboard [ALU_SCOREBOARD] Expected Error: 0, Got: 0
Time=5000 op=0 a=00000000 b=00000000 result=00000000 error=0
UVM_INFO H:/Vivado_fpga/PROJECTS/ALU_UVM/ALU_UVM.srcs/sim_1/new/alu_pkg.sv(255) @ 15000: uvm_test_top.env.scoreboard [ALU_SCOREBOARD] Operation: 0, A: 0, B: 0
UVM_INFO H:/Vivado_fpga/PROJECTS/ALU_UVM/ALU_UVM.srcs/sim_1/new/alu_pkg.sv(257) @ 15000: uvm_test_top.env.scoreboard [ALU_SCOREBOARD] Expected Result: 0, Got: 0
UVM_INFO H:/Vivado_fpga/PROJECTS/ALU_UVM/ALU_UVM.srcs/sim_1/new/alu_pkg.sv(259) @ 15000: uvm_test_top.env.scoreboard [ALU_SCOREBOARD] Expected Error: 0, Got: 0
UVM_INFO H:/Vivado_fpga/PROJECTS/ALU_UVM/ALU_UVM.srcs/sim_1/new/alu_pkg.sv(255) @ 25000: uvm_test_top.env.scoreboard [ALU_SCOREBOARD] Operation: 0, A: 0, B: 0
UVM_INFO H:/Vivado_fpga/PROJECTS/ALU_UVM/ALU_UVM.srcs/sim_1/new/alu_pkg.sv(257) @ 25000: uvm_test_top.env.scoreboard [ALU_SCOREBOARD] Expected Result: 0, Got: 0
UVM_INFO H:/Vivado_fpga/PROJECTS/ALU_UVM/ALU_UVM.srcs/sim_1/new/alu_pkg.sv(259) @ 25000: uvm_test_top.env.scoreboard [ALU_SCOREBOARD] Expected Error: 0, Got: 0
UVM_INFO H:/Vivado_fpga/PROJECTS/ALU_UVM/ALU_UVM.srcs/sim_1/new/alu_pkg.sv(255) @ 35000: uvm_test_top.env.scoreboard [ALU_SCOREBOARD] Operation: 0, A: 0, B: 0
UVM_INFO H:/Vivado_fpga/PROJECTS/ALU_UVM/ALU_UVM.srcs/sim_1/new/alu_pkg.sv(257) @ 35000: uvm_test_top.env.scoreboard [ALU_SCOREBOARD] Expected Result: 0, Got: 0
UVM_INFO H:/Vivado_fpga/PROJECTS/ALU_UVM/ALU_UVM.srcs/sim_1/new/alu_pkg.sv(259) @ 35000: uvm_test_top.env.scoreboard [ALU_SCOREBOARD] Expected Error: 0, Got: 0
UVM_INFO H:/Vivado_fpga/PROJECTS/ALU_UVM/ALU_UVM.srcs/sim_1/new/alu_pkg.sv(255) @ 45000: uvm_test_top.env.scoreboard [ALU_SCOREBOARD] Operation: 0, A: 0, B: 0
UVM_INFO H:/Vivado_fpga/PROJECTS/ALU_UVM/ALU_UVM.srcs/sim_1/new/alu_pkg.sv(257) @ 45000: uvm_test_top.env.scoreboard [ALU_SCOREBOARD] Expected Result: 0, Got: 0
UVM_INFO H:/Vivado_fpga/PROJECTS/ALU_UVM/ALU_UVM.srcs/sim_1/new/alu_pkg.sv(259) @ 45000: uvm_test_top.env.scoreboard [ALU_SCOREBOARD] Expected Error: 0, Got: 0
UVM_INFO H:/Vivado_fpga/PROJECTS/ALU_UVM/ALU_UVM.srcs/sim_1/new/alu_pkg.sv(255) @ 55000: uvm_test_top.env.scoreboard [ALU_SCOREBOARD] Operation: 0, A: 0, B: 0
UVM_INFO H:/Vivado_fpga/PROJECTS/ALU_UVM/ALU_UVM.srcs/sim_1/new/alu_pkg.sv(257) @ 55000: uvm_test_top.env.scoreboard [ALU_SCOREBOARD] Expected Result: 0, Got: 0
UVM_INFO H:/Vivado_fpga/PROJECTS/ALU_UVM/ALU_UVM.srcs/sim_1/new/alu_pkg.sv(259) @ 55000: uvm_test_top.env.scoreboard [ALU_SCOREBOARD] Expected Error: 0, Got: 0
UVM_INFO H:/Vivado_fpga/PROJECTS/ALU_UVM/ALU_UVM.srcs/sim_1/new/alu_pkg.sv(255) @ 65000: uvm_test_top.env.scoreboard [ALU_SCOREBOARD] Operation: 0, A: 0, B: 0
UVM_INFO H:/Vivado_fpga/PROJECTS/ALU_UVM/ALU_UVM.srcs/sim_1/new/alu_pkg.sv(257) @ 65000: uvm_test_top.env.scoreboard [ALU_SCOREBOARD] Expected Result: 0, Got: 0
UVM_INFO H:/Vivado_fpga/PROJECTS/ALU_UVM/ALU_UVM.srcs/sim_1/new/alu_pkg.sv(259) @ 65000: uvm_test_top.env.scoreboard [ALU_SCOREBOARD] Expected Error: 0, Got: 0
UVM_INFO H:/Vivado_fpga/PROJECTS/ALU_UVM/ALU_UVM.srcs/sim_1/new/alu_pkg.sv(255) @ 75000: uvm_test_top.env.scoreboard [ALU_SCOREBOARD] Operation: 0, A: 0, B: 0
UVM_INFO H:/Vivado_fpga/PROJECTS/ALU_UVM/ALU_UVM.srcs/sim_1/new/alu_pkg.sv(257) @ 75000: uvm_test_top.env.scoreboard [ALU_SCOREBOARD] Expected Result: 0, Got: 0
UVM_INFO H:/Vivado_fpga/PROJECTS/ALU_UVM/ALU_UVM.srcs/sim_1/new/alu_pkg.sv(259) @ 75000: uvm_test_top.env.scoreboard [ALU_SCOREBOARD] Expected Error: 0, Got: 0
UVM_INFO H:/Vivado_fpga/PROJECTS/ALU_UVM/ALU_UVM.srcs/sim_1/new/alu_pkg.sv(255) @ 85000: uvm_test_top.env.scoreboard [ALU_SCOREBOARD] Operation: 0, A: 0, B: 0
UVM_INFO H:/Vivado_fpga/PROJECTS/ALU_UVM/ALU_UVM.srcs/sim_1/new/alu_pkg.sv(257) @ 85000: uvm_test_top.env.scoreboard [ALU_SCOREBOARD] Expected Result: 0, Got: 0
UVM_INFO H:/Vivado_fpga/PROJECTS/ALU_UVM/ALU_UVM.srcs/sim_1/new/alu_pkg.sv(259) @ 85000: uvm_test_top.env.scoreboard [ALU_SCOREBOARD] Expected Error: 0, Got: 0
UVM_INFO H:/Vivado_fpga/PROJECTS/ALU_UVM/ALU_UVM.srcs/sim_1/new/alu_pkg.sv(255) @ 95000: uvm_test_top.env.scoreboard [ALU_SCOREBOARD] Operation: 0, A: 0, B: 0
UVM_INFO H:/Vivado_fpga/PROJECTS/ALU_UVM/ALU_UVM.srcs/sim_1/new/alu_pkg.sv(257) @ 95000: uvm_test_top.env.scoreboard [ALU_SCOREBOARD] Expected Result: 0, Got: 0
UVM_INFO H:/Vivado_fpga/PROJECTS/ALU_UVM/ALU_UVM.srcs/sim_1/new/alu_pkg.sv(259) @ 95000: uvm_test_top.env.scoreboard [ALU_SCOREBOARD] Expected Error: 0, Got: 0
UVM_INFO H:/Vivado_fpga/PROJECTS/ALU_UVM/ALU_UVM.srcs/sim_1/new/alu_pkg.sv(255) @ 105000: uvm_test_top.env.scoreboard [ALU_SCOREBOARD] Operation: 0, A: 12345678, B: 87654321
UVM_INFO H:/Vivado_fpga/PROJECTS/ALU_UVM/ALU_UVM.srcs/sim_1/new/alu_pkg.sv(257) @ 105000: uvm_test_top.env.scoreboard [ALU_SCOREBOARD] Expected Result: 99999999, Got: 99999999
UVM_INFO H:/Vivado_fpga/PROJECTS/ALU_UVM/ALU_UVM.srcs/sim_1/new/alu_pkg.sv(259) @ 105000: uvm_test_top.env.scoreboard [ALU_SCOREBOARD] Expected Error: 0, Got: 0
Time=105000 op=0 a=12345678 b=87654321 result=99999999 error=0
UVM_INFO H:/Vivado_fpga/PROJECTS/ALU_UVM/ALU_UVM.srcs/sim_1/new/alu_pkg.sv(255) @ 115000: uvm_test_top.env.scoreboard [ALU_SCOREBOARD] Operation: 0, A: 12345678, B: 87654321
UVM_INFO H:/Vivado_fpga/PROJECTS/ALU_UVM/ALU_UVM.srcs/sim_1/new/alu_pkg.sv(257) @ 115000: uvm_test_top.env.scoreboard [ALU_SCOREBOARD] Expected Result: 99999999, Got: 99999999
UVM_INFO H:/Vivado_fpga/PROJECTS/ALU_UVM/ALU_UVM.srcs/sim_1/new/alu_pkg.sv(259) @ 115000: uvm_test_top.env.scoreboard [ALU_SCOREBOARD] Expected Error: 0, Got: 0
UVM_INFO H:/Vivado_fpga/PROJECTS/ALU_UVM/ALU_UVM.srcs/sim_1/new/alu_pkg.sv(161) @ 115000: uvm_test_top.env.driver [ALU_DRIVER] Drove: op=0 a=12345678 b=87654321 result=99999999 error=0
UVM_INFO H:/Vivado_fpga/PROJECTS/ALU_UVM/ALU_UVM.srcs/sim_1/new/alu_pkg.sv(255) @ 125000: uvm_test_top.env.scoreboard [ALU_SCOREBOARD] Operation: 0, A: 12345678, B: 87654321
UVM_INFO H:/Vivado_fpga/PROJECTS/ALU_UVM/ALU_UVM.srcs/sim_1/new/alu_pkg.sv(257) @ 125000: uvm_test_top.env.scoreboard [ALU_SCOREBOARD] Expected Result: 99999999, Got: 99999999
UVM_INFO H:/Vivado_fpga/PROJECTS/ALU_UVM/ALU_UVM.srcs/sim_1/new/alu_pkg.sv(259) @ 125000: uvm_test_top.env.scoreboard [ALU_SCOREBOARD] Expected Error: 0, Got: 0
UVM_INFO H:/Vivado_fpga/PROJECTS/ALU_UVM/ALU_UVM.srcs/sim_1/new/alu_pkg.sv(255) @ 135000: uvm_test_top.env.scoreboard [ALU_SCOREBOARD] Operation: 0, A: 12345678, B: 87654321
UVM_INFO H:/Vivado_fpga/PROJECTS/ALU_UVM/ALU_UVM.srcs/sim_1/new/alu_pkg.sv(257) @ 135000: uvm_test_top.env.scoreboard [ALU_SCOREBOARD] Expected Result: 99999999, Got: 99999999
UVM_INFO H:/Vivado_fpga/PROJECTS/ALU_UVM/ALU_UVM.srcs/sim_1/new/alu_pkg.sv(259) @ 135000: uvm_test_top.env.scoreboard [ALU_SCOREBOARD] Expected Error: 0, Got: 0
UVM_INFO H:/Vivado_fpga/PROJECTS/ALU_UVM/ALU_UVM.srcs/sim_1/new/alu_pkg.sv(255) @ 145000: uvm_test_top.env.scoreboard [ALU_SCOREBOARD] Operation: 0, A: 12345678, B: 87654321
UVM_INFO H:/Vivado_fpga/PROJECTS/ALU_UVM/ALU_UVM.srcs/sim_1/new/alu_pkg.sv(257) @ 145000: uvm_test_top.env.scoreboard [ALU_SCOREBOARD] Expected Result: 99999999, Got: 99999999
UVM_INFO H:/Vivado_fpga/PROJECTS/ALU_UVM/ALU_UVM.srcs/sim_1/new/alu_pkg.sv(259) @ 145000: uvm_test_top.env.scoreboard [ALU_SCOREBOARD] Expected Error: 0, Got: 0
UVM_INFO H:/Vivado_fpga/PROJECTS/ALU_UVM/ALU_UVM.srcs/sim_1/new/alu_pkg.sv(255) @ 155000: uvm_test_top.env.scoreboard [ALU_SCOREBOARD] Operation: 1, A: ffffffff, B: 1
UVM_INFO H:/Vivado_fpga/PROJECTS/ALU_UVM/ALU_UVM.srcs/sim_1/new/alu_pkg.sv(257) @ 155000: uvm_test_top.env.scoreboard [ALU_SCOREBOARD] Expected Result: fffffffe, Got: fffffffe
UVM_INFO H:/Vivado_fpga/PROJECTS/ALU_UVM/ALU_UVM.srcs/sim_1/new/alu_pkg.sv(259) @ 155000: uvm_test_top.env.scoreboard [ALU_SCOREBOARD] Expected Error: 0, Got: 0
Time=155000 op=1 a=ffffffff b=00000001 result=fffffffe error=0
UVM_INFO H:/Vivado_fpga/PROJECTS/ALU_UVM/ALU_UVM.srcs/sim_1/new/alu_pkg.sv(161) @ 165000: uvm_test_top.env.driver [ALU_DRIVER] Drove: op=1 a=ffffffff b=1 result=fffffffe error=0
UVM_INFO H:/Vivado_fpga/PROJECTS/ALU_UVM/ALU_UVM.srcs/sim_1/new/alu_pkg.sv(255) @ 165000: uvm_test_top.env.scoreboard [ALU_SCOREBOARD] Operation: 1, A: ffffffff, B: 1
UVM_INFO H:/Vivado_fpga/PROJECTS/ALU_UVM/ALU_UVM.srcs/sim_1/new/alu_pkg.sv(257) @ 165000: uvm_test_top.env.scoreboard [ALU_SCOREBOARD] Expected Result: fffffffe, Got: fffffffe
UVM_INFO H:/Vivado_fpga/PROJECTS/ALU_UVM/ALU_UVM.srcs/sim_1/new/alu_pkg.sv(259) @ 165000: uvm_test_top.env.scoreboard [ALU_SCOREBOARD] Expected Error: 0, Got: 0
UVM_INFO H:/Vivado_fpga/PROJECTS/ALU_UVM/ALU_UVM.srcs/sim_1/new/alu_pkg.sv(255) @ 175000: uvm_test_top.env.scoreboard [ALU_SCOREBOARD] Operation: 1, A: ffffffff, B: 1
UVM_INFO H:/Vivado_fpga/PROJECTS/ALU_UVM/ALU_UVM.srcs/sim_1/new/alu_pkg.sv(257) @ 175000: uvm_test_top.env.scoreboard [ALU_SCOREBOARD] Expected Result: fffffffe, Got: fffffffe
UVM_INFO H:/Vivado_fpga/PROJECTS/ALU_UVM/ALU_UVM.srcs/sim_1/new/alu_pkg.sv(259) @ 175000: uvm_test_top.env.scoreboard [ALU_SCOREBOARD] Expected Error: 0, Got: 0
UVM_INFO H:/Vivado_fpga/PROJECTS/ALU_UVM/ALU_UVM.srcs/sim_1/new/alu_pkg.sv(255) @ 185000: uvm_test_top.env.scoreboard [ALU_SCOREBOARD] Operation: 1, A: ffffffff, B: 1
UVM_INFO H:/Vivado_fpga/PROJECTS/ALU_UVM/ALU_UVM.srcs/sim_1/new/alu_pkg.sv(257) @ 185000: uvm_test_top.env.scoreboard [ALU_SCOREBOARD] Expected Result: fffffffe, Got: fffffffe
UVM_INFO H:/Vivado_fpga/PROJECTS/ALU_UVM/ALU_UVM.srcs/sim_1/new/alu_pkg.sv(259) @ 185000: uvm_test_top.env.scoreboard [ALU_SCOREBOARD] Expected Error: 0, Got: 0
UVM_INFO H:/Vivado_fpga/PROJECTS/ALU_UVM/ALU_UVM.srcs/sim_1/new/alu_pkg.sv(255) @ 195000: uvm_test_top.env.scoreboard [ALU_SCOREBOARD] Operation: 1, A: ffffffff, B: 1
UVM_INFO H:/Vivado_fpga/PROJECTS/ALU_UVM/ALU_UVM.srcs/sim_1/new/alu_pkg.sv(257) @ 195000: uvm_test_top.env.scoreboard [ALU_SCOREBOARD] Expected Result: fffffffe, Got: fffffffe
UVM_INFO H:/Vivado_fpga/PROJECTS/ALU_UVM/ALU_UVM.srcs/sim_1/new/alu_pkg.sv(259) @ 195000: uvm_test_top.env.scoreboard [ALU_SCOREBOARD] Expected Error: 0, Got: 0
UVM_INFO H:/Vivado_fpga/PROJECTS/ALU_UVM/ALU_UVM.srcs/sim_1/new/alu_pkg.sv(255) @ 205000: uvm_test_top.env.scoreboard [ALU_SCOREBOARD] Operation: 2, A: ff, B: ff
UVM_INFO H:/Vivado_fpga/PROJECTS/ALU_UVM/ALU_UVM.srcs/sim_1/new/alu_pkg.sv(257) @ 205000: uvm_test_top.env.scoreboard [ALU_SCOREBOARD] Expected Result: fe01, Got: fe01
UVM_INFO H:/Vivado_fpga/PROJECTS/ALU_UVM/ALU_UVM.srcs/sim_1/new/alu_pkg.sv(259) @ 205000: uvm_test_top.env.scoreboard [ALU_SCOREBOARD] Expected Error: 0, Got: 0
Time=205000 op=2 a=000000ff b=000000ff result=0000fe01 error=0
UVM_INFO H:/Vivado_fpga/PROJECTS/ALU_UVM/ALU_UVM.srcs/sim_1/new/alu_pkg.sv(161) @ 215000: uvm_test_top.env.driver [ALU_DRIVER] Drove: op=2 a=ff b=ff result=fe01 error=0
UVM_INFO H:/Vivado_fpga/PROJECTS/ALU_UVM/ALU_UVM.srcs/sim_1/new/alu_pkg.sv(255) @ 215000: uvm_test_top.env.scoreboard [ALU_SCOREBOARD] Operation: 2, A: ff, B: ff
UVM_INFO H:/Vivado_fpga/PROJECTS/ALU_UVM/ALU_UVM.srcs/sim_1/new/alu_pkg.sv(257) @ 215000: uvm_test_top.env.scoreboard [ALU_SCOREBOARD] Expected Result: fe01, Got: fe01
UVM_INFO H:/Vivado_fpga/PROJECTS/ALU_UVM/ALU_UVM.srcs/sim_1/new/alu_pkg.sv(259) @ 215000: uvm_test_top.env.scoreboard [ALU_SCOREBOARD] Expected Error: 0, Got: 0
UVM_INFO H:/Vivado_fpga/PROJECTS/ALU_UVM/ALU_UVM.srcs/sim_1/new/alu_pkg.sv(255) @ 225000: uvm_test_top.env.scoreboard [ALU_SCOREBOARD] Operation: 2, A: ff, B: ff
UVM_INFO H:/Vivado_fpga/PROJECTS/ALU_UVM/ALU_UVM.srcs/sim_1/new/alu_pkg.sv(257) @ 225000: uvm_test_top.env.scoreboard [ALU_SCOREBOARD] Expected Result: fe01, Got: fe01
UVM_INFO H:/Vivado_fpga/PROJECTS/ALU_UVM/ALU_UVM.srcs/sim_1/new/alu_pkg.sv(259) @ 225000: uvm_test_top.env.scoreboard [ALU_SCOREBOARD] Expected Error: 0, Got: 0
UVM_INFO H:/Vivado_fpga/PROJECTS/ALU_UVM/ALU_UVM.srcs/sim_1/new/alu_pkg.sv(255) @ 235000: uvm_test_top.env.scoreboard [ALU_SCOREBOARD] Operation: 2, A: ff, B: ff
UVM_INFO H:/Vivado_fpga/PROJECTS/ALU_UVM/ALU_UVM.srcs/sim_1/new/alu_pkg.sv(257) @ 235000: uvm_test_top.env.scoreboard [ALU_SCOREBOARD] Expected Result: fe01, Got: fe01
UVM_INFO H:/Vivado_fpga/PROJECTS/ALU_UVM/ALU_UVM.srcs/sim_1/new/alu_pkg.sv(259) @ 235000: uvm_test_top.env.scoreboard [ALU_SCOREBOARD] Expected Error: 0, Got: 0
UVM_INFO H:/Vivado_fpga/PROJECTS/ALU_UVM/ALU_UVM.srcs/sim_1/new/alu_pkg.sv(255) @ 245000: uvm_test_top.env.scoreboard [ALU_SCOREBOARD] Operation: 2, A: ff, B: ff
UVM_INFO H:/Vivado_fpga/PROJECTS/ALU_UVM/ALU_UVM.srcs/sim_1/new/alu_pkg.sv(257) @ 245000: uvm_test_top.env.scoreboard [ALU_SCOREBOARD] Expected Result: fe01, Got: fe01
UVM_INFO H:/Vivado_fpga/PROJECTS/ALU_UVM/ALU_UVM.srcs/sim_1/new/alu_pkg.sv(259) @ 245000: uvm_test_top.env.scoreboard [ALU_SCOREBOARD] Expected Error: 0, Got: 0
UVM_INFO H:/Vivado_fpga/PROJECTS/ALU_UVM/ALU_UVM.srcs/sim_1/new/alu_pkg.sv(255) @ 255000: uvm_test_top.env.scoreboard [ALU_SCOREBOARD] Operation: 3, A: 10000000, B: 2
UVM_INFO H:/Vivado_fpga/PROJECTS/ALU_UVM/ALU_UVM.srcs/sim_1/new/alu_pkg.sv(257) @ 255000: uvm_test_top.env.scoreboard [ALU_SCOREBOARD] Expected Result: 8000000, Got: 8000000
UVM_INFO H:/Vivado_fpga/PROJECTS/ALU_UVM/ALU_UVM.srcs/sim_1/new/alu_pkg.sv(259) @ 255000: uvm_test_top.env.scoreboard [ALU_SCOREBOARD] Expected Error: 0, Got: 0
Time=255000 op=3 a=10000000 b=00000002 result=08000000 error=0
UVM_INFO H:/Vivado_fpga/PROJECTS/ALU_UVM/ALU_UVM.srcs/sim_1/new/alu_pkg.sv(161) @ 265000: uvm_test_top.env.driver [ALU_DRIVER] Drove: op=3 a=10000000 b=2 result=8000000 error=0
UVM_INFO H:/Vivado_fpga/PROJECTS/ALU_UVM/ALU_UVM.srcs/sim_1/new/alu_pkg.sv(255) @ 265000: uvm_test_top.env.scoreboard [ALU_SCOREBOARD] Operation: 3, A: 10000000, B: 2
UVM_INFO H:/Vivado_fpga/PROJECTS/ALU_UVM/ALU_UVM.srcs/sim_1/new/alu_pkg.sv(257) @ 265000: uvm_test_top.env.scoreboard [ALU_SCOREBOARD] Expected Result: 8000000, Got: 8000000
UVM_INFO H:/Vivado_fpga/PROJECTS/ALU_UVM/ALU_UVM.srcs/sim_1/new/alu_pkg.sv(259) @ 265000: uvm_test_top.env.scoreboard [ALU_SCOREBOARD] Expected Error: 0, Got: 0
UVM_INFO H:/Vivado_fpga/PROJECTS/ALU_UVM/ALU_UVM.srcs/sim_1/new/alu_pkg.sv(255) @ 275000: uvm_test_top.env.scoreboard [ALU_SCOREBOARD] Operation: 3, A: 10000000, B: 2
UVM_INFO H:/Vivado_fpga/PROJECTS/ALU_UVM/ALU_UVM.srcs/sim_1/new/alu_pkg.sv(257) @ 275000: uvm_test_top.env.scoreboard [ALU_SCOREBOARD] Expected Result: 8000000, Got: 8000000
UVM_INFO H:/Vivado_fpga/PROJECTS/ALU_UVM/ALU_UVM.srcs/sim_1/new/alu_pkg.sv(259) @ 275000: uvm_test_top.env.scoreboard [ALU_SCOREBOARD] Expected Error: 0, Got: 0
UVM_INFO H:/Vivado_fpga/PROJECTS/ALU_UVM/ALU_UVM.srcs/sim_1/new/alu_pkg.sv(255) @ 285000: uvm_test_top.env.scoreboard [ALU_SCOREBOARD] Operation: 3, A: 10000000, B: 2
UVM_INFO H:/Vivado_fpga/PROJECTS/ALU_UVM/ALU_UVM.srcs/sim_1/new/alu_pkg.sv(257) @ 285000: uvm_test_top.env.scoreboard [ALU_SCOREBOARD] Expected Result: 8000000, Got: 8000000
UVM_INFO H:/Vivado_fpga/PROJECTS/ALU_UVM/ALU_UVM.srcs/sim_1/new/alu_pkg.sv(259) @ 285000: uvm_test_top.env.scoreboard [ALU_SCOREBOARD] Expected Error: 0, Got: 0
UVM_INFO H:/Vivado_fpga/PROJECTS/ALU_UVM/ALU_UVM.srcs/sim_1/new/alu_pkg.sv(255) @ 295000: uvm_test_top.env.scoreboard [ALU_SCOREBOARD] Operation: 3, A: 10000000, B: 2
UVM_INFO H:/Vivado_fpga/PROJECTS/ALU_UVM/ALU_UVM.srcs/sim_1/new/alu_pkg.sv(257) @ 295000: uvm_test_top.env.scoreboard [ALU_SCOREBOARD] Expected Result: 8000000, Got: 8000000
UVM_INFO H:/Vivado_fpga/PROJECTS/ALU_UVM/ALU_UVM.srcs/sim_1/new/alu_pkg.sv(259) @ 295000: uvm_test_top.env.scoreboard [ALU_SCOREBOARD] Expected Error: 0, Got: 0
UVM_INFO H:/Vivado_fpga/PROJECTS/ALU_UVM/ALU_UVM.srcs/sim_1/new/alu_pkg.sv(255) @ 305000: uvm_test_top.env.scoreboard [ALU_SCOREBOARD] Operation: 3, A: 12345678, B: 0
UVM_INFO H:/Vivado_fpga/PROJECTS/ALU_UVM/ALU_UVM.srcs/sim_1/new/alu_pkg.sv(257) @ 305000: uvm_test_top.env.scoreboard [ALU_SCOREBOARD] Expected Result: 0, Got: 0
UVM_INFO H:/Vivado_fpga/PROJECTS/ALU_UVM/ALU_UVM.srcs/sim_1/new/alu_pkg.sv(259) @ 305000: uvm_test_top.env.scoreboard [ALU_SCOREBOARD] Expected Error: 1, Got: 1
Time=305000 op=3 a=12345678 b=00000000 result=00000000 error=1
UVM_INFO H:/Vivado_fpga/PROJECTS/ALU_UVM/ALU_UVM.srcs/sim_1/new/alu_pkg.sv(161) @ 315000: uvm_test_top.env.driver [ALU_DRIVER] Drove: op=3 a=12345678 b=0 result=0 error=1
UVM_INFO H:/Vivado_fpga/PROJECTS/ALU_UVM/ALU_UVM.srcs/sim_1/new/alu_pkg.sv(255) @ 315000: uvm_test_top.env.scoreboard [ALU_SCOREBOARD] Operation: 3, A: 12345678, B: 0
UVM_INFO H:/Vivado_fpga/PROJECTS/ALU_UVM/ALU_UVM.srcs/sim_1/new/alu_pkg.sv(257) @ 315000: uvm_test_top.env.scoreboard [ALU_SCOREBOARD] Expected Result: 0, Got: 0
UVM_INFO H:/Vivado_fpga/PROJECTS/ALU_UVM/ALU_UVM.srcs/sim_1/new/alu_pkg.sv(259) @ 315000: uvm_test_top.env.scoreboard [ALU_SCOREBOARD] Expected Error: 1, Got: 1
UVM_INFO H:/Vivado_fpga/PROJECTS/ALU_UVM/ALU_UVM.srcs/sim_1/new/alu_pkg.sv(255) @ 325000: uvm_test_top.env.scoreboard [ALU_SCOREBOARD] Operation: 3, A: 12345678, B: 0
UVM_INFO H:/Vivado_fpga/PROJECTS/ALU_UVM/ALU_UVM.srcs/sim_1/new/alu_pkg.sv(257) @ 325000: uvm_test_top.env.scoreboard [ALU_SCOREBOARD] Expected Result: 0, Got: 0
UVM_INFO H:/Vivado_fpga/PROJECTS/ALU_UVM/ALU_UVM.srcs/sim_1/new/alu_pkg.sv(259) @ 325000: uvm_test_top.env.scoreboard [ALU_SCOREBOARD] Expected Error: 1, Got: 1
UVM_INFO H:/Vivado_fpga/PROJECTS/ALU_UVM/ALU_UVM.srcs/sim_1/new/alu_pkg.sv(255) @ 335000: uvm_test_top.env.scoreboard [ALU_SCOREBOARD] Operation: 3, A: 12345678, B: 0
UVM_INFO H:/Vivado_fpga/PROJECTS/ALU_UVM/ALU_UVM.srcs/sim_1/new/alu_pkg.sv(257) @ 335000: uvm_test_top.env.scoreboard [ALU_SCOREBOARD] Expected Result: 0, Got: 0
UVM_INFO H:/Vivado_fpga/PROJECTS/ALU_UVM/ALU_UVM.srcs/sim_1/new/alu_pkg.sv(259) @ 335000: uvm_test_top.env.scoreboard [ALU_SCOREBOARD] Expected Error: 1, Got: 1
UVM_INFO H:/Vivado_fpga/PROJECTS/ALU_UVM/ALU_UVM.srcs/sim_1/new/alu_pkg.sv(255) @ 345000: uvm_test_top.env.scoreboard [ALU_SCOREBOARD] Operation: 3, A: 12345678, B: 0
UVM_INFO H:/Vivado_fpga/PROJECTS/ALU_UVM/ALU_UVM.srcs/sim_1/new/alu_pkg.sv(257) @ 345000: uvm_test_top.env.scoreboard [ALU_SCOREBOARD] Expected Result: 0, Got: 0
UVM_INFO H:/Vivado_fpga/PROJECTS/ALU_UVM/ALU_UVM.srcs/sim_1/new/alu_pkg.sv(259) @ 345000: uvm_test_top.env.scoreboard [ALU_SCOREBOARD] Expected Error: 1, Got: 1
UVM_INFO H:/Vivado_fpga/PROJECTS/ALU_UVM/ALU_UVM.srcs/sim_1/new/alu_pkg.sv(255) @ 355000: uvm_test_top.env.scoreboard [ALU_SCOREBOARD] Operation: 0, A: ec867225, B: ef5ab756
UVM_INFO H:/Vivado_fpga/PROJECTS/ALU_UVM/ALU_UVM.srcs/sim_1/new/alu_pkg.sv(257) @ 355000: uvm_test_top.env.scoreboard [ALU_SCOREBOARD] Expected Result: dbe1297b, Got: dbe1297b
UVM_INFO H:/Vivado_fpga/PROJECTS/ALU_UVM/ALU_UVM.srcs/sim_1/new/alu_pkg.sv(259) @ 355000: uvm_test_top.env.scoreboard [ALU_SCOREBOARD] Expected Error: 0, Got: 0
Time=355000 op=0 a=ec867225 b=ef5ab756 result=dbe1297b error=0
UVM_INFO H:/Vivado_fpga/PROJECTS/ALU_UVM/ALU_UVM.srcs/sim_1/new/alu_pkg.sv(161) @ 365000: uvm_test_top.env.driver [ALU_DRIVER] Drove: op=0 a=ec867225 b=ef5ab756 result=dbe1297b error=0
UVM_INFO H:/Vivado_fpga/PROJECTS/ALU_UVM/ALU_UVM.srcs/sim_1/new/alu_pkg.sv(255) @ 365000: uvm_test_top.env.scoreboard [ALU_SCOREBOARD] Operation: 0, A: ec867225, B: ef5ab756
UVM_INFO H:/Vivado_fpga/PROJECTS/ALU_UVM/ALU_UVM.srcs/sim_1/new/alu_pkg.sv(257) @ 365000: uvm_test_top.env.scoreboard [ALU_SCOREBOARD] Expected Result: dbe1297b, Got: dbe1297b
UVM_INFO H:/Vivado_fpga/PROJECTS/ALU_UVM/ALU_UVM.srcs/sim_1/new/alu_pkg.sv(259) @ 365000: uvm_test_top.env.scoreboard [ALU_SCOREBOARD] Expected Error: 0, Got: 0
UVM_INFO H:/Vivado_fpga/PROJECTS/ALU_UVM/ALU_UVM.srcs/sim_1/new/alu_pkg.sv(255) @ 375000: uvm_test_top.env.scoreboard [ALU_SCOREBOARD] Operation: 0, A: ec867225, B: ef5ab756
UVM_INFO H:/Vivado_fpga/PROJECTS/ALU_UVM/ALU_UVM.srcs/sim_1/new/alu_pkg.sv(257) @ 375000: uvm_test_top.env.scoreboard [ALU_SCOREBOARD] Expected Result: dbe1297b, Got: dbe1297b
UVM_INFO H:/Vivado_fpga/PROJECTS/ALU_UVM/ALU_UVM.srcs/sim_1/new/alu_pkg.sv(259) @ 375000: uvm_test_top.env.scoreboard [ALU_SCOREBOARD] Expected Error: 0, Got: 0
