FIFO_UVM/FIFO_UVM.sim/sim_1/behav/xsim/dump.vcd
$date
   Fri Feb  7 22:15:06 2025
$end

$version
  2024.2.0
  $dumpfile ("dump.vcd") 
$end

$timescale
  1ps
$end

$scope module fifo_tb_top $end
$var reg 1 ! clk $end
$var reg 1 " rst_n $end
$scope module fifo_vif $end
$var reg 1 # clk $end
$var reg 1 $ rst_n $end
$var reg 1 % wr_en $end
$var reg 1 & rd_en $end
$var reg 32 ' wr_data [31:0] $end
$var reg 32 ( rd_data [31:0] $end
$var reg 1 ) full $end
$var reg 1 * empty $end
$scope module driver $end
$var reg 1 # clk $end
$var reg 1 $ rst_n $end
$upscope $end
$scope module monitor $end
$var reg 1 # clk $end
$var reg 1 $ rst_n $end
$upscope $end
$scope module driver_cb $end
$var reg 32 + rd_data [31:0] $end
$var reg 1 , full $end
$var reg 1 - empty $end
$var reg 32 . wr_data [31:0] $end
$var reg 1 / rd_en $end
$var reg 1 0 wr_en $end
$upscope $end
$scope module monitor_cb $end
$var reg 1 1 wr_en $end
$var reg 1 2 rd_en $end
$var reg 32 3 wr_data [31:0] $end
$var reg 32 4 rd_data [31:0] $end
$var reg 1 5 full $end
$var reg 1 6 empty $end
$upscope $end
$upscope $end
$scope module dut $end
$var wire 1 7 clk $end
$var wire 1 8 rst_n $end
$var wire 1 9 wr_en $end
$var wire 1 : rd_en $end
$var wire 32 ; wr_data [31:0] $end
$var reg 32 < rd_data [31:0] $end
$var reg 1 = full $end
$var reg 1 > empty $end
$var reg 4 ? wr_ptr [3:0] $end
$var reg 4 @ rd_ptr [3:0] $end
$var reg 5 A count [4:0] $end
$upscope $end
$upscope $end
$enddefinitions $end

#0
$dumpvars
0!
0"
0#
0$
x%
x&
bx '
bx (
0)
1*
bx +
x,
x-
bx .
x/
x0
x1
x2
bx 3
bx 4
x5
x6
07
08
x9
x:
bx ;
bx <
0=
1>
b0 ?
b0 @
b0 A
$end

#5000
1!
1#
1%
0&
b11011010101011001110011110100011 '
0,
1-
b11011010101011001110011110100011 .
0/
10
05
16
17
19
0:
b11011010101011001110011110100011 ;

#10000
0!
0#
07

#15000
1!
1#
0%
b11011010101011001110011110100011 (
00
11
02
b11011010101011001110011110100011 3
17
09
b11011010101011001110011110100011 <

#20000
0!
0#
07

#25000
1!
1#
b11011010101011001110011110100011 +
01
b11011010101011001110011110100011 4
17

#30000
0!
0#
07

#35000
1!
1#
1&
1/
17
1:

#40000
0!
0#
07

#45000
1!
1#
0&
0/
12
17
0:

#50000
0!
1"
0#
1$
07
18

#55000
1!
1#
02
17

#60000
0!
0#
07

#65000
1!
1#
1&
1/
17
1:

#70000
0!
0#
07

#75000
1!
1#
0&
0/
12
17
0:

#80000
0!
0#
07

#85000
1!
1#
02
17

#90000
0!
0#
07

#95000
1!
1#
1&
1/
17
1:

#100000
0!
0#
07

#105000
1!
1#
0&
0/
12
17
0:

#110000
0!
0#
07

#115000
1!
1#
02
17

#120000
0!
0#
07

#125000
1!
1#
1&
1/
17
1:

#130000
0!
0#
07

#135000
1!
1#
0&
0/
12
17
0:

#140000
0!
0#
07

#145000
1!
1#
02
17

#150000
0!
0#
07

#155000
1!
1#
1&
1/
17
1:

#160000
0!
0#
07

#165000
1!
1#
0&
0/
12
17
0:

#170000
0!
0#
07

#175000
1!
1#
02
17

#180000
0!
0#
07

#185000
1!
1#
1%
b11001110000011011100011000011110 '
b11001110000011011100011000011110 .
10
17
19
b11001110000011011100011000011110 ;

#190000
0!
0#
07

#195000
1!
1#
0%
b11001110000011011100011000011110 (
0*
00
11
b11001110000011011100011000011110 3
17
09
b11001110000011011100011000011110 <
0>
b1 ?
b1 A

#200000
0!
0#
07

#205000
1!
1#
b11001110000011011100011000011110 +
0-
01
b11001110000011011100011000011110 4
06
17

#210000
0!
0#
07

#215000
1!
1#
1%
b11111001011100001000001001000 '
b11111001011100001000001001000 .
10
17
19
b11111001011100001000001001000 ;

#220000
0!
0#
07

#225000
1!
1#
0%
00
11
b11111001011100001000001001000 3
17
09
b10 ?
b10 A

#230000
0!
0#
07

#235000
1!
1#
01
17

#240000
0!
0#
07

#245000
1!
1#
1%
b10010111010100101111011100110111 '
b10010111010100101111011100110111 .
10
17
19
b10010111010100101111011100110111 ;

#250000
0!
0#
07

#255000
1!
1#
0%
00
11
b10010111010100101111011100110111 3
17
09
b11 ?
b11 A

#260000
0!
0#
07

#265000
1!
1#
01
17

#270000
0!
0#
07

#275000
1!
1#
1%
b11110110011111000111101100011010 '
b11110110011111000111101100011010 .
10
17
19
b11110110011111000111101100011010 ;

#280000
0!
0#
07

#285000
1!
1#
0%
00
11
b11110110011111000111101100011010 3
17
09
b100 ?
b100 A

#290000
0!
0#
07

#295000
1!
1#
01
17

#300000
0!
0#
07

#305000
1!
1#
1&
1/
17
1:

#310000
0!
0#
07

#315000
1!
1#
0&
b11111001011100001000001001000 (
0/
12
17
0:
b11111001011100001000001001000 <
b1 @
b11 A

#320000
0!
0#
07

#325000
1!
1#
b11111001011100001000001001000 +
02
b11111001011100001000001001000 4
17

#330000
0!
0#
07

#335000
1!
1#
1%
b10101001110111010101100110000011 '
b10101001110111010101100110000011 .
10
17
19
b10101001110111010101100110000011 ;

#340000
0!
0#
07

#345000
1!
1#
0%
00
11
b10101001110111010101100110000011 3
17
09
b101 ?
b100 A

#350000
0!
0#
07

#355000
1!
1#
01
17

#360000
0!
0#
07

#365000
1!
1#
1%
b11111110000101001011010000001100 '
b11111110000101001011010000001100 .
10
17
19
b11111110000101001011010000001100 ;

#370000
0!
0#
07

#375000
1!
1#
0%
00
11
b11111110000101001011010000001100 3
17
09
b110 ?
b101 A

#380000
0!
0#
07

#385000
1!
1#
01
17

#390000
0!
0#
07

#395000
1!
1#
1%
b11111001010100001010101101100010 '
b11111001010100001010101101100010 .
10
17
19
b11111001010100001010101101100010 ;

#400000
0!
0#
07

#405000
1!
1#
0%
00
11
b11111001010100001010101101100010 3
17
09
b111 ?
b110 A

#410000
0!
0#
07

#415000
1!
1#
01
17

#420000
0!
0#
07

#425000
1!
1#
1%
b11011011100100010011111110101011 '
b11011011100100010011111110101011 .
10
17
19
b11011011100100010011111110101011 ;

#430000
0!
0#
07

#435000
1!
1#
0%
00
11
b11011011100100010011111110101011 3
17
09
b1000 ?
b111 A

#440000
0!
0#
07

#445000
1!
1#
01
17

#450000
0!
0#
07

#455000
1!
1#
1%
b100100110101100111000011011010 '
b100100110101100111000011011010 .
10
17
19
b100100110101100111000011011010 ;

#460000
0!
0#
07

#465000
1!
1#
0%
00
11
b100100110101100111000011011010 3
17
09
b1001 ?
b1000 A

#470000
0!
0#
07

#475000
1!
1#
01
17

#480000
0!
0#
07

#485000
1!
1#
1%
b11010101001000000011111011000111 '
b11010101001000000011111011000111 .
10
17
19
b11010101001000000011111011000111 ;

#490000
0!
0#
07

#495000
1!
1#
0%
00
11
b11010101001000000011111011000111 3
17
09
b1010 ?
b1001 A

#500000
0!
0#
07

#505000
1!
1#
01
17

#510000
0!
0#
07

#515000
1!
1#
1%
b11101100011011101010100111001101 '
b11101100011011101010100111001101 .
10
17
19
b11101100011011101010100111001101 ;

#520000
0!
0#
07

#525000
1!
1#
0%
00
11
b11101100011011101010100111001101 3
17
09
b1011 ?
b1010 A

#530000
0!
0#
07

#535000
1!
1#
01
17

#540000
0!
0#
07

#545000
1!
1#
1&
1/
17
1:

#550000
0!
0#
07

#555000
1!
1#
0&
b10010111010100101111011100110111 (
0/
12
17
0:
b10010111010100101111011100110111 <
b10 @
b1001 A

#560000
0!
0#
07

#565000
1!
1#
b10010111010100101111011100110111 +
02
b10010111010100101111011100110111 4
17

#570000
0!
0#
07

#575000
1!
1#
1%
b11010000000110010101011000011110 '
b11010000000110010101011000011110 .
10
17
19
b11010000000110010101011000011110 ;

#580000
0!
0#
07

#585000
1!
1#
0%
00
11
b11010000000110010101011000011110 3
17
09
b1100 ?
b1010 A

#590000
0!
0#
07

#595000
1!
1#
01
17

#600000
0!
0#
07

#605000
1!
1#
1%
b10011100011101011001011110100100 '
b10011100011101011001011110100100 .
10
17
19
b10011100011101011001011110100100 ;

#610000
0!
0#
07

#615000
1!
1#
0%
00
11
b10011100011101011001011110100100 3
17
09
b1101 ?
b1011 A

#620000
0!
0#
07

#625000
1!
1#
01
17

#630000
0!
0#
07

#635000
1!
1#
1%
b1111110101100111011000100000 '
b1111110101100111011000100000 .
10
17
19
b1111110101100111011000100000 ;

#640000
0!
0#
07

#645000
1!
1#
0%
00
11
b1111110101100111011000100000 3
17
09
b1110 ?
b1100 A

#650000
0!
0#
07

#655000
1!
1#
01
17

#660000
0!
0#
07

#665000
1!
1#
1&
1/
17
1:

#670000
0!
0#
07

#675000
1!
1#
0&
b11110110011111000111101100011010 (
0/
12
17
0:
b11110110011111000111101100011010 <
b11 @
b1011 A

#680000
0!
0#
07

#685000
1!
1#
b11110110011111000111101100011010 +
02
b11110110011111000111101100011010 4
17

#690000
0!
0#
07

#695000
1!
1#
1%
b10101011101001100000100110100101 '
b10101011101001100000100110100101 .
10
17
19
b10101011101001100000100110100101 ;

#700000
0!
0#
07

#705000
1!
1#
0%
00
11
b10101011101001100000100110100101 3
17
09
b1111 ?
b1100 A

#710000
0!
0#
07

#715000
1!
1#
01
17

#720000
0!
0#
07

#725000
1!
1#
1%
b11010100000101001011111010100001 '
b11010100000101001011111010100001 .
10
17
19
b11010100000101001011111010100001 ;

#730000
0!
0#
07

#735000
1!
1#
0%
00
11
b11010100000101001011111010100001 3
17
09
b0 ?
b1101 A

#740000
0!
0#
07

#745000
1!
1#
01
17

#750000
0!
0#
07

#755000
1!
1#
1%
b11100011100010000001000001101110 '
b11100011100010000001000001101110 .
10
17
19
b11100011100010000001000001101110 ;

#760000
0!
0#
07

#765000
1!
1#
0%
00
11
b11100011100010000001000001101110 3
17
09
b1 ?
b1110 A

#770000
0!
0#
07

#775000
1!
1#
01
17

#780000
0!
0#
07

#785000
1!
1#
1&
1/
17
1:

#790000
0!
0#
07

#795000
1!
1#
0&
b10101001110111010101100110000011 (
0/
12
17
0:
b10101001110111010101100110000011 <
b100 @
b1101 A

#800000
0!
0#
07

#805000
1!
1#
b10101001110111010101100110000011 +
02
b10101001110111010101100110000011 4
17

#810000
0!
0#
07

#815000
1!
1#
1%
b11110111011111001000101011010101 '
b11110111011111001000101011010101 .
10
17
19
b11110111011111001000101011010101 ;

#820000
0!
0#
07

#825000
1!
1#
0%
00
11
b11110111011111001000101011010101 3
17
09
b10 ?
b1110 A

#830000
0!
0#
07

#835000
1!
1#
01
17

#840000
0!
0#
07

#845000
1!
1#
1%
b11111011111111011011001101101011 '
b11111011111111011011001101101011 .
10
17
19
b11111011111111011011001101101011 ;

#850000
0!
0#
07

#855000
1!
1#
0%
00
11
b11111011111111011011001101101011 3
17
09
b11 ?
b1111 A

#860000
0!
0#
07

#865000
1!
1#
01
17

#870000
0!
0#
07

#875000
1!
1#
1%
b100111100000110111100011100011 '
b100111100000110111100011100011 .
10
17
19
b100111100000110111100011100011 ;

#880000
0!
0#
07

#885000
1!
1#
0%
1)
00
11
b100111100000110111100011100011 3
17
09
1=
b100 ?
b10000 A

#890000
0!
0#
07

#895000
1!
1#
1,
01
15
17

#900000
0!
0#
07

#905000
1!
1#
1&
1/
17
1:

#910000
0!
0#
07

#915000
1!
1#
0&
b11111110000101001011010000001100 (
0)
0/
12
17
0:
b11111110000101001011010000001100 <
0=
b101 @
b1111 A

#920000
0!
0#
07

#925000
1!
1#
b11111110000101001011010000001100 +
0,
02
b11111110000101001011010000001100 4
05
17

#930000
0!
0#
07

#935000
1!
1#
1&
1/
17
1:

#940000
0!
0#
07

#945000
1!
1#
0&
b11111001010100001010101101100010 (
0/
12
17
0:
b11111001010100001010101101100010 <
b110 @
b1110 A

#950000
0!
0#
07

#955000
1!
1#
b11111001010100001010101101100010 +
02
b11111001010100001010101101100010 4
17

#960000
0!
0#
07

#965000
1!
1#
1%
b11010100001100000111011001000110 '
b11010100001100000111011001000110 .
10
17
19
b11010100001100000111011001000110 ;

#970000
0!
0#
07

#975000
1!
1#
0%
00
11
b11010100001100000111011001000110 3
17
09
b101 ?
b1111 A

#980000
0!
0#
07

#985000
1!
1#
01
17

#990000
0!
0#
07

#995000
1!
1#
1&
1/
17
1:

#1000000
0!
0#
07

#1005000
1!
1#
0&
b11011011100100010011111110101011 (
0/
12
17
0:
b11011011100100010011111110101011 <
b111 @
b1110 A

#1010000
0!
0#
07

#1015000
1!
1#
b11011011100100010011111110101011 +
02
b11011011100100010011111110101011 4
17

#1020000
0!
0#
07

#1025000
1!
1#
1&
1/
17
1:

#1030000
0!
0#
07

#1035000
1!
1#
0&
b100100110101100111000011011010 (
0/
12
17
0:
b100100110101100111000011011010 <
b1000 @
b1101 A

#1040000
0!
0#
07

#1045000
1!
1#
b100100110101100111000011011010 +
02
b100100110101100111000011011010 4
17

#1050000
0!
0#
07

#1055000
1!
1#
1%
b10100000000001101111011110100010 '
b10100000000001101111011110100010 .
10
17
19
b10100000000001101111011110100010 ;

#1060000
0!
0#
07

#1065000
1!
1#
0%
00
11
b10100000000001101111011110100010 3
17
09
b110 ?
b1110 A

#1070000
0!
0#
07

#1075000
1!
1#
01
17

#1080000
0!
0#
07

#1085000
1!
1#
1%
b11011100101011010000011101000101 '
b11011100101011010000011101000101 .
10
17
19
b11011100101011010000011101000101 ;

#1090000
0!
0#
07

#1095000
1!
1#
0%
00
11
b11011100101011010000011101000101 3
17
09
b111 ?
b1111 A

#1100000
0!
0#
07

#1105000
1!
1#
01
17

#1110000
0!
0#
07

#1115000
1!
1#
1&
1/
17
1:

#1120000
0!
0#
07

#1125000
1!
1#
0&
b11010101001000000011111011000111 (
0/
12
17
0:
b11010101001000000011111011000111 <
b1001 @
b1110 A

#1130000
0!
0#
07

#1135000
1!
1#
b11010101001000000011111011000111 +
02
b11010101001000000011111011000111 4
17

#1140000
0!
0#
07

#1145000
1!
1#
1&
1/
17
1:

#1150000
0!
0#
07

#1155000
1!
1#
0&
b11101100011011101010100111001101 (
0/
12
17
0:
b11101100011011101010100111001101 <
b1010 @
b1101 A

#1160000
0!
0#
07

#1165000
1!
1#
b11101100011011101010100111001101 +
02
b11101100011011101010100111001101 4
17

#1170000
0!
0#
07

#1175000
1!
1#
1&
1/
17
1:

#1180000
0!
0#
07

#1185000
1!
1#
0&
b11010000000110010101011000011110 (
0/
12
17
0:
b11010000000110010101011000011110 <
b1011 @
b1100 A

#1190000
0!
0#
07

#1195000
1!
1#
b11010000000110010101011000011110 +
02
b11010000000110010101011000011110 4
17

#1200000
0!
0#
07

#1205000
1!
1#
1&
1/
17
1:

#1210000
0!
0#
07

#1215000
1!
1#
0&
b10011100011101011001011110100100 (
0/
12
17
0:
b10011100011101011001011110100100 <
b1100 @
b1011 A

#1220000
0!
0#
07

#1225000
1!
1#
b10011100011101011001011110100100 +
02
b10011100011101011001011110100100 4
17

#1230000
0!
0#
07

#1235000
1!
1#
1&
1/
17
1:

#1240000
0!
0#
07

#1245000
1!
1#
0&
b1111110101100111011000100000 (
0/
12
17
0:
b1111110101100111011000100000 <
b1101 @
b1010 A

#1250000
0!
0#
07

#1255000
1!
1#
b1111110101100111011000100000 +
02
b1111110101100111011000100000 4
17

#1260000
0!
0#
07

#1265000
1!
1#
1&
1/
17
1:

#1270000
0!
0#
07

#1275000
1!
1#
0&
b10101011101001100000100110100101 (
0/
12
17
0:
b10101011101001100000100110100101 <
b1110 @
b1001 A

#1280000
0!
0#
07

#1285000
1!
1#
b10101011101001100000100110100101 +
02
b10101011101001100000100110100101 4
17

#1290000
0!
0#
07

#1295000
1!
1#
1%
b11001001101110001001110010001110 '
b11001001101110001001110010001110 .
10
17
19
b11001001101110001001110010001110 ;

#1300000
0!
0#
07

#1305000
1!
1#
0%
00
11
b11001001101110001001110010001110 3
17
09
b1000 ?
b1010 A

#1310000
0!
0#
07

#1315000
1!
1#
01
17

#1320000
0!
0#
07

#1325000
1!
1#
1&
1/
17
1:

#1330000
0!
0#
07

#1335000
1!
1#
0&
b11010100000101001011111010100001 (
0/
12
17
0:
b11010100000101001011111010100001 <
b1111 @
b1001 A

#1340000
0!
0#
07

#1345000
1!
1#
b11010100000101001011111010100001 +
02
b11010100000101001011111010100001 4
17

#1350000
0!
0#
07

#1355000
1!
1#
1%
b11010010100110010011010001110 '
b11010010100110010011010001110 .
10
17
19
b11010010100110010011010001110 ;

#1360000
0!
0#
07

#1365000
1!
1#
0%
00
11
b11010010100110010011010001110 3
17
09
b1001 ?
b1010 A

#1370000
0!
0#
07

#1375000
1!
1#
01
17

#1380000
0!
0#
07

#1385000
1!
1#
1&
1/
17
1:

#1390000
0!
0#
07

#1395000
1!
1#
0&
b11100011100010000001000001101110 (
0/
12
17
0:
b11100011100010000001000001101110 <
b0 @
b1001 A

#1400000
0!
0#
07

#1405000
1!
1#
b11100011100010000001000001101110 +
02
b11100011100010000001000001101110 4
17

#1410000
0!
0#
07

#1415000
1!
1#
1&
1/
17
1:

#1420000
0!
0#
07

#1425000
1!
1#
0&
b11110111011111001000101011010101 (
0/
12
17
0:
b11110111011111001000101011010101 <
b1 @
b1000 A

#1430000
0!
0#
07

#1435000
1!
1#
b11110111011111001000101011010101 +
02
b11110111011111001000101011010101 4
17

#1440000
0!
0#
07

#1445000
1!
1#
1%
b11010111110111011000111000011111 '
b11010111110111011000111000011111 .
10
17
19
b11010111110111011000111000011111 ;

#1450000
0!
0#
07

#1455000
1!
1#
0%
00
11
b11010111110111011000111000011111 3
17
09
b1010 ?
b1001 A

#1460000
0!
0#
07

#1465000
1!
1#
01
17

#1470000
0!
0#
07

#1475000
1!
1#
1&
1/
17
1:

#1480000
0!
0#
07

#1485000
1!
1#
0&
b11111011111111011011001101101011 (
0/
12
17
0:
b11111011111111011011001101101011 <
b10 @
b1000 A

#1490000
0!
0#
07

#1495000
1!
1#
b11111011111111011011001101101011 +
02
b11111011111111011011001101101011 4
17

#1500000
0!
0#
07

#1505000
1!
1#
1%
b101110101001100011100011011101 '
b101110101001100011100011011101 .
10
17
19
b101110101001100011100011011101 ;

#1510000
0!
0#
07

#1515000
1!
1#
0%
00
11
b101110101001100011100011011101 3
17
09
b1011 ?
b1001 A

#1520000
0!
0#
07

#1525000
1!
1#
01
17

#1530000
0!
0#
07

#1535000
1!
1#
1&
1/
17
1:

#1540000
0!
0#
07

#1545000
1!
1#
0&
b100111100000110111100011100011 (
0/
12
17
0:
b100111100000110111100011100011 <
b11 @
b1000 A

#1550000
0!
0#
07

#1555000
1!
1#
b100111100000110111100011100011 +
02
b100111100000110111100011100011 4
17

#1560000
0!
0#
07

#1565000
1!
1#
1&
1/
17
1:

#1570000
0!
0#
07

#1575000
1!
1#
0&
b11010100001100000111011001000110 (
0/
12
17
0:
b11010100001100000111011001000110 <
b100 @
b111 A

#1580000
0!
0#
07

#1585000
1!
1#
b11010100001100000111011001000110 +
02
b11010100001100000111011001000110 4
17

#1590000
0!
0#
07

#1595000
1!
1#
1&
1/
17
1:

#1600000
0!
0#
07

#1605000
1!
1#
0&
b10100000000001101111011110100010 (
0/
12
17
0:
b10100000000001101111011110100010 <
b101 @
b110 A

#1610000
0!
0#
07

#1615000
1!
1#
b10100000000001101111011110100010 +
02
b10100000000001101111011110100010 4
17

#1620000
0!
0#
07

#1625000
1!
1#
1%
b110000011011101110100011000010 '
b110000011011101110100011000010 .
10
17
19
b110000011011101110100011000010 ;

#1630000
0!
0#
07

#1635000
1!
1#
0%
00
11
b110000011011101110100011000010 3
17
09
b1100 ?
b111 A

#1640000
0!
0#
07

#1645000
1!
1#
01
17

#1650000
0!
0#
07

#1655000
1!
1#
1%
b10010011011001001110011110111 '
b10010011011001001110011110111 .
10
17
19
b10010011011001001110011110111 ;

#1660000
0!
0#
07

#1665000
1!
1#
0%
00
11
b10010011011001001110011110111 3
17
09
b1101 ?
b1000 A

#1670000
0!
0#
07

#1675000
1!
1#
01
17

#1680000
0!
0#
07

#1685000
1!
1#
1&
1/
17
1:

#1690000
0!
0#
07

#1695000
1!
1#
0&
b11011100101011010000011101000101 (
0/
12
17
0:
b11011100101011010000011101000101 <
b110 @
b111 A

#1700000
0!
0#
07

#1705000
1!
1#
b11011100101011010000011101000101 +
02
b11011100101011010000011101000101 4
17

#1710000
0!
0#
07

#1715000
1!
1#
1%
b11001011011101011101101111111111 '
b11001011011101011101101111111111 .
10
17
19
b11001011011101011101101111111111 ;

#1720000
0!
0#
07

#1725000
1!
1#
0%
00
11
b11001011011101011101101111111111 3
17
09
b1110 ?
b1000 A

#1730000
0!
0#
07

#1735000
1!
1#
01
17

#1740000
0!
0#
07

#1745000
1!
1#
1%
b100010100000010110011011011001 '
b100010100000010110011011011001 .
10
17
19
b100010100000010110011011011001 ;

#1750000
0!
0#
07

#1755000
1!
1#
0%
00
11
b100010100000010110011011011001 3
17
09
b1111 ?
b1001 A

#1760000
0!
0#
07

#1765000
1!
1#
01
17

#1770000
0!
0#
07

#1775000
1!
1#
1%
b11100000100100011000111010011010 '
b11100000100100011000111010011010 .
10
17
19
b11100000100100011000111010011010 ;

#1780000
0!
0#
07

#1785000
1!
1#
0%
00
11
b11100000100100011000111010011010 3
17
09
b0 ?
b1010 A

#1790000
0!
0#
07

#1795000
1!
1#
01
17

#1800000
0!
0#
07

#1805000
1!
1#
1&
1/
17
1:

#1810000
0!
0#
07

#1815000
1!
1#
0&
b11001001101110001001110010001110 (
0/
12
17
0:
b11001001101110001001110010001110 <
b111 @
b1001 A

#1820000
0!
0#
07

#1825000
1!
1#
b11001001101110001001110010001110 +
02
b11001001101110001001110010001110 4
17

#1830000
0!
0#
07

#1835000
1!
1#
1&
1/
17
1:

#1840000
0!
0#
07

#1845000
1!
1#
0&
b11010010100110010011010001110 (
0/
12
17
0:
b11010010100110010011010001110 <
b1000 @
b1000 A

#1850000
0!
0#
07

#1855000
1!
1#
b11010010100110010011010001110 +
02
b11010010100110010011010001110 4
17

#1860000
0!
0#
07

#1865000
1!
1#
1%
b100110111011011001011011010 '
b100110111011011001011011010 .
10
17
19
b100110111011011001011011010 ;

#1870000
0!
0#
07

#1875000
1!
1#
0%
00
11
b100110111011011001011011010 3
17
09
b1 ?
b1001 A

#1880000
0!
0#
07

#1885000
1!
1#
01
17

#1890000
0!
0#
07

#1895000
1!
1#
1&
1/
17
1:

#1900000
0!
0#
07

#1905000
1!
1#
0&
b11010111110111011000111000011111 (
0/
12
17
0:
b11010111110111011000111000011111 <
b1001 @
b1000 A

#1910000
0!
0#
07

#1915000
1!
1#
b11010111110111011000111000011111 +
02
b11010111110111011000111000011111 4
17

#1920000
0!
0#
07

#1925000
1!
1#
1%
b11100000001001111000011000101100 '
b11100000001001111000011000101100 .
10
17
19
b11100000001001111000011000101100 ;

#1930000
0!
0#
07

#1935000
1!
1#
0%
00
11
b11100000001001111000011000101100 3
17
09
b10 ?
b1001 A

#1940000
0!
0#
07

#1945000
1!
1#
01
17

#1950000
0!
0#
07

#1955000
1!
1#
1%
b11001000010100110101101100101010 '
b11001000010100110101101100101010 .
10
17
19
b11001000010100110101101100101010 ;

#1960000
0!
0#
07

#1965000
1!
1#
0%
00
11
b11001000010100110101101100101010 3
17
09
b11 ?
b1010 A

#1970000
0!
0#
07

#1975000
1!
1#
01
17

#1980000
0!
0#
07

#1985000
1!
1#
1&
1/
17
1:

#1990000
0!
0#
07

#1995000
1!
1#
0&
b101110101001100011100011011101 (
0/
12
17
0:
b101110101001100011100011011101 <
b1010 @
b1001 A

#2000000
0!
0#
07

#2005000
1!
1#
b101110101001100011100011011101 +
02
b101110101001100011100011011101 4
17

#2010000
0!
0#
07

#2015000
1!
1#
1&
1/
17
1:

#2020000
0!
0#
07

#2025000
1!
1#
0&
b110000011011101110100011000010 (
0/
12
17
0:
b110000011011101110100011000010 <
b1011 @
b1000 A

#2030000
0!
0#
07

#2035000
1!
1#
b110000011011101110100011000010 +
02
b110000011011101110100011000010 4
17

#2040000
0!
0#
07

#2045000
1!
1#
1%
b10101010111100101000011101000011 '
b10101010111100101000011101000011 .
10
17
19
b10101010111100101000011101000011 ;

#2050000
0!
0#
07

#2055000
1!
1#
0%
00
11
b10101010111100101000011101000011 3
17
09
b100 ?
b1001 A

#2060000
0!
0#
07

#2065000
1!
1#
01
17

#2070000
0!
0#
07

#2075000
1!
1#
1&
1/
17
1:

#2080000
0!
0#
07

#2085000
1!
1#
0&
b10010011011001001110011110111 (
0/
12
17
0:
b10010011011001001110011110111 <
b1100 @
b1000 A

#2090000
0!
0#
07

#2095000
1!
1#
b10010011011001001110011110111 +
02
b10010011011001001110011110111 4
17

#2100000
0!
0#
07

#2105000
1!
1#
1%
b11010011100111011010011111011 '
b11010011100111011010011111011 .
10
17
19
b11010011100111011010011111011 ;

#2110000
0!
0#
07

#2115000
1!
1#
0%
00
11
b11010011100111011010011111011 3
17
09
b101 ?
b1001 A

#2120000
0!
0#
07

#2125000
1!
1#
01
17

#2130000
0!
0#
07

#2135000
1!
1#
1&
1/
17
1:

#2140000
0!
0#
07

#2145000
1!
1#
0&
b11001011011101011101101111111111 (
0/
12
17
0:
b11001011011101011101101111111111 <
b1101 @
b1000 A

#2150000
0!
0#
07

#2155000
1!
1#
b11001011011101011101101111111111 +
02
b11001011011101011101101111111111 4
17

#2160000
0!
0#
07

#2165000
1!
1#
1&
1/
17
1:

#2170000
0!
0#
07

#2175000
1!
1#
0&
b100010100000010110011011011001 (
0/
12
17
0:
b100010100000010110011011011001 <
b1110 @
b111 A

#2180000
0!
0#
07

#2185000
1!
1#
b100010100000010110011011011001 +
02
b100010100000010110011011011001 4
17

#2190000
0!
0#
07

#2195000
1!
1#
1%
b11000110010110000001001001011010 '
b11000110010110000001001001011010 .
10
17
19
b11000110010110000001001001011010 ;

#2200000
0!
0#
07

#2205000
1!
1#
0%
00
11
b11000110010110000001001001011010 3
17
09
b110 ?
b1000 A

#2210000
0!
0#
07

#2215000
1!
1#
01
17

#2220000
0!
0#
07

#2225000
1!
1#
1&
1/
17
1:

#2230000
0!
0#
07

#2235000
1!
1#
0&
b11100000100100011000111010011010 (
0/
12
17
0:
b11100000100100011000111010011010 <
b1111 @
b111 A

#2240000
0!
0#
07

#2245000
1!
1#
b11100000100100011000111010011010 +
02
b11100000100100011000111010011010 4
17

#2250000
0!
0#
07

#2255000
1!
1#
1&
1/
17
1:

#2260000
0!
0#
07

#2265000
1!
1#
0&
b100110111011011001011011010 (
0/
12
17
0:
b100110111011011001011011010 <
b0 @
b110 A

#2270000
0!
0#
07

#2275000
1!
1#
b100110111011011001011011010 +
02
b100110111011011001011011010 4
17

#2280000
0!
0#
07

#2285000
1!
1#
1%
b11010001011001011111001101100010 '
b11010001011001011111001101100010 .
10
17
19
b11010001011001011111001101100010 ;

#2290000
0!
0#
07

#2295000
1!
1#
0%
00
11
b11010001011001011111001101100010 3
17
09
b111 ?
b111 A

#2300000
0!
0#
07

#2305000
1!
1#
01
17

#2310000
0!
0#
07

#2315000
1!
1#
1&
1/
17
1:

#2320000
0!
0#
07

#2325000
1!
1#
0&
b11100000001001111000011000101100 (
0/
12
17
0:
b11100000001001111000011000101100 <
b1 @
b110 A

#2330000
0!
0#
07

#2335000
1!
1#
b11100000001001111000011000101100 +
02
b11100000001001111000011000101100 4
17

#2340000
0!
0#
07

#2345000
1!
1#
1%
b11110001001100001110111100110000 '
b11110001001100001110111100110000 .
10
17
19
b11110001001100001110111100110000 ;

#2350000
0!
0#
07

#2355000
1!
1#
0%
00
11
b11110001001100001110111100110000 3
17
09
b1000 ?
b111 A

#2360000
0!
0#
07

#2365000
1!
1#
01
17

#2370000
0!
0#
07

#2375000
1!
1#
1%
b10111011100111010101100001101101 '
b10111011100111010101100001101101 .
10
17
19
b10111011100111010101100001101101 ;

#2380000
0!
0#
07

#2385000
1!
1#
0%
00
11
b10111011100111010101100001101101 3
17
09
b1001 ?
b1000 A

#2390000
0!
0#
07

#2395000
1!
1#
01
17

#2400000
0!
0#
07

#2405000
1!
1#
1%
b11101101000011100101111010101010 '
b11101101000011100101111010101010 .
10
17
19
b11101101000011100101111010101010 ;

#2410000
0!
0#
07

#2415000
1!
1#
0%
00
11
b11101101000011100101111010101010 3
17
09
b1010 ?
b1001 A

#2420000
0!
0#
07

#2425000
1!
1#
01
17

#2430000
0!
0#
07

#2435000
1!
1#
1%
b101100001000000000101111111 '
b101100001000000000101111111 .
10
17
19
b101100001000000000101111111 ;

#2440000
0!
0#
07

#2445000
1!
1#
0%
00
11
b101100001000000000101111111 3
17
09
b1011 ?
b1010 A

#2450000
0!
0#
07

#2455000
1!
1#
01
17

#2460000
0!
0#
07

#2465000
1!
1#
1%
b100111111100100000101101100 '
b100111111100100000101101100 .
10
17
19
b100111111100100000101101100 ;

#2470000
0!
0#
07

#2475000
1!
1#
0%
00
11
b100111111100100000101101100 3
17
09
b1100 ?
b1011 A

#2480000
0!
0#
07

#2485000
1!
1#
01
17

#2490000
0!
0#
07

#2495000
1!
1#
1&
1/
17
1:

#2500000
0!
0#
07

#2505000
1!
1#
0&
b11001000010100110101101100101010 (
0/
12
17
0:
b11001000010100110101101100101010 <
b10 @
b1010 A

#2510000
0!
0#
07

#2515000
1!
1#
b11001000010100110101101100101010 +
02
b11001000010100110101101100101010 4
17

#2520000
0!
0#
07

#2525000
1!
1#
1&
1/
17
1:

#2530000
0!
0#
07

#2535000
1!
1#
0&
b10101010111100101000011101000011 (
0/
12
17
0:
b10101010111100101000011101000011 <
b11 @
b1001 A

#2540000
0!
0#
07

#2545000
1!
1#
b10101010111100101000011101000011 +
02
b10101010111100101000011101000011 4
17

#2550000
0!
0#
07

#2555000
1!
1#
1&
1/
17
1:

#2560000
0!
0#
07

